{
  "id" : "urn:ngsi:AirQualityObserved:HOPac67b2cd449a",
  "type" : "AirQualityObserved",
  "CO" : 557.2999877,
  "H2S" : 6.222001,
  "NO" : 0,
  "NO2" : 67.5699996,
  "O3" : 9.2700004,
  "PM1" : 11.5716304,
  "PM10" : 34.0724067,
  "PM25" : 17.5279903,
  "SO2" : 7.4699997,
  "TimeInstant" : "2022-01-17T11:05:05.00Z",
  "VOC" : 533.5060424,
  "dataProvider" : "www.hopu.eu",
  "ica": true,
  "location" : {
    "type" : "Point",
    "coordinates" : [ -1.2153559, 37.9688796 ]
  },
  "name" : "Plaza de la Constitución",
  "operationalStatus" : "CONNECTED",
  "particulates" : [ "PM1", "PM10", "PM25" ],
  "pollutants" : [ "CO", "H2S", "NO", "NO2", "O3", "SO2", "VOC" ],
  "source" : "www.hopu.eu",
  "state": "OK",
  "dateModified" : "2022-01-17T11:06:18.00Z"
}