{
  "id": "LOS_URRUTIAS:Beach",
  "type": "Beach",
  "beachType": {
    "type": "StructuredValue",
    "value": [
      "arena_dorada"
    ],
    "metadata": {}
  },
  "date": {
    "type": "Text",
    "value": "2020-10-11T19:17:29",
    "metadata": {}
  },
  "flag": {
    "type": "Text",
    "value": "Ninguna",
    "metadata": {}
  },
  "image": {
    "type": "Text",
    "value": "N/A",
    "metadata": {}
  },
  "location": {
    "type": "StructuredValue",
    "value": {
      "coordinates": [
        -0.8317954,
        37.6841773
      ]
    },
    "metadata": {}
  },
  "name": {
    "type": "Text",
    "value": "LOS URRUTIAS",
    "metadata": {}
  },
  "rescue_post": {
    "type": "Text",
    "value": "Del 29/06 al 01/09: Diario de 11:00h a 20:00h",
    "metadata": {}
  },
  "status": {
    "type": "Text",
    "value": "N/A",
    "metadata": {}
  },
  "dateModified": {
    "type": "DateTime",
    "value": "2020-10-11T20:45:18",
    "metadata": {}
  }
}