{
  "id": "urn:ngsi:Device:HOP40f520691d02",
  "type": "Device",
  "TimeInstant": {
    "type": "DateTime",
    "value": "2022-01-17T14:16:36.00Z"
  },
  "dataProvider": {
    "type": "Text",
    "value": "www.hopu.eu"
  },
  "location": {
    "type": "geo:json",
    "value": {
      "type": "Point",
      "coordinates": [
        -1.213561,
        37.969338
      ]
    }
  },
  "name": {
    "type": "Text",
    "value": "Plaza de la Constitución"
  },
  "operationalStatus": {
    "type": "Text",
    "value": "CONNECTED"
  },
  "source": {
    "type": "Text",
    "value": "www.hopu.eu"
  },
  "state": {
    "type": "Text",
    "value": "OK"
  },
  "dateModified": {
    "type": "DateTime",
    "value": "2022-01-17T14:16:36.00Z"
  }
}
