{
  "id": "urn:ngsi:Device:HOP40f520691d02",
  "type": "Device",
  "TimeInstant": {
    "type": "DateTime",
    "value": "2022-01-17T14:16:36.00Z",
    "metadata": {}
  },
  "dataProvider": {
    "type": "Text",
    "value": "www.hopu.eu",
    "metadata": {}
  },
  "location": {
    "type": "geo:json",
    "value": {
      "type": "Point",
      "coordinates": [
        -1.213561,
        37.969338
      ]
    },
    "metadata": {}
  },
  "name": {
    "type": "Text",
    "value": "Plaza de la Constitución",
    "metadata": {}
  },
  "operationalStatus": {
    "type": "Text",
    "value": "CONNECTED",
    "metadata": {
      "timestamp": {
        "type": "DateTime",
        "value": "2022-01-17T14:16:36.00Z"
      }
    }
  },
  "source": {
    "type": "Text",
    "value": "www.hopu.eu",
    "metadata": {}
  },
  "state": {
    "type": "Text",
    "value": "OK",
    "metadata": {
      "description": {
        "type": "Text",
        "value": "Status of integration"
      },
      "ranges": {
        "type": "Text",
        "value": "OK|MAINTENANCE|DATA_RECOVERY"
      }
    }
  },
  "dateModified": {
    "type": "DateTime",
    "value": "2022-01-17T14:16:36.00Z",
    "metadata": {}
  }
}